…
``` r
stop_area<-read_csv("../HW_data/StopArea.csv")
Line <-read_csv("../HW_data/Line.csv")
Journey_Pattern <- read_csv("../HW_data/JourneyPattern.csv")
Journey_Pattern <- Journey_Pattern %>%
  mutate(JourneyPatternPointNumber = as.integer(JourneyPatternPointNumber))
```

``` r
stop_area%>%
  count(StopPointNumber) #<--- primary
```

    ## # A tibble: 13,254 x 2
    ##    StopPointNumber     n
    ##              <int> <int>
    ##  1             306     1
    ##  2             308     1
    ##  3             309     1
    ##  4             310     1
    ##  5             312     1
    ##  6             313     1
    ##  7             314     1
    ##  8             315     1
    ##  9             316     1
    ## 10             318     1
    ## # ... with 13,244 more rows

``` r
Journey_Pattern%>%   #<---primary
  count(JourneyPatternPointNumber,LineNumber,DirectionCode)
```

    ## # A tibble: 26,869 x 4
    ##    JourneyPatternPointNumber LineNumber DirectionCode     n
    ##                        <int>      <int>         <int> <int>
    ##  1                       101         16             1     1
    ##  2                       101         16             2     1
    ##  3                       101         17             1     1
    ##  4                       101         17             2     1
    ##  5                       101         23             1     1
    ##  6                       101         23             2     1
    ##  7                       102         16             1     1
    ##  8                       102         16             2     1
    ##  9                       102         17             1     1
    ## 10                       102         17             2     1
    ## # ... with 26,859 more rows
…
